"uuid"	"file"	"council_group"	"name_ric_a28"	"full_name_ric_a28"	"identifier_ric_a22"	"has_beginning_date_ric_r069i"	"has_end_date_ric_r071i"	"included_in_ric_r024i"	"series_no"	"box_no"	"item_no"	"linked_agent"	"content_type_ric_a10"	"format_details"	"legacy_identifier"	"former_archives_ref"	"conditions_of_use_ric_a09"	"rights"	"physical_characteristics_ric_a31"	"copies"	"record_resource_extent_ric_a35"	"access"	"conditions_of_access_ric_a08"	"has_location_ric_r075i"	"is_associated_with_place_ric_r074i"	"accession_reference"	"coordinates"	"descriptive_note_ric_a16"	"display_hints"	"tags"
		"Palmerston North CC"	"Demo record"		"PNCC 1-2-3"	2006	2006	"Subdivisional Approvals -  Registered Subject files (RM/SUB Series) (1551)"	"PNCC 1-2-3"	81	"CD060573W"	"createdBy=Palmerston North City Council|cre=Rangi Person"	"Document"	"Codafile"	"20200610/1"		"Creative Commons Attribution-NonCommercial-NoDerivs (CC BY-NC-ND) 4.0"	"Palmerston North City Council"	"Good overall condition. No treatment."	1		"Open"		"Archives Central"	"Palmerston North"	"A/2017/10"		"To dispose of surface and sub-surface drainage water from the Kenny Road Pump station through the existing outfall pipe onto the foreshore. Site of activity: Seabed adjacent to: Lot 3 DP 8469"	"N/A"	
		"Palmerston North CC"	"Demo PDF file"		"PNCC 4-5-6"	1989	1999	"Subdivisional Approvals -  Registered Subject files (RM/SUB Series) (1551)"	"PNCC 4-5-6"	81	"CD990260A pt 1"	"createdBy=Palmerston North City Council"	"Document"	"Codafile"	"20200610/2"		"Creative Commons Attribution-NonCommercial-NoDerivs (CC BY-NC-ND) 4.0"	"Palmerston North City Council"	"Good overall condition. No treatment."	1		"Open"		"Archives Central"	"Palmerston North"	"A/2017/10"		"To discharge milliscreened sewage effluent and industrial wastewater generated in the Hastings District into Hawke Bay via a marine outfall. Site of discharge: adjacent to Sec 3 Blk II Clive SD

File contains:
AEE Supporting Documents File 1 of 2"	"N/A"	
